…
# Observations (reading in the observations I have already downloaded for that species.)

``` r
obs = read_obis(SPECIES)
obs
```

    ## Simple feature collection with 6075 features and 7 fields
    ## Geometry type: POINT
    ## Dimension:     XY
    ## Bounding box:  xmin: -74.583 ymin: 38.81521 xmax: -65.0203 ymax: 45.94406
    ## Geodetic CRS:  WGS 84
    ## # A tibble: 6,075 × 8
    ##    id             basisOfRecord eventDate   year month eventTime individualCount
    ##  * <chr>          <chr>         <date>     <dbl> <chr> <chr>               <dbl>
    ##  1 0010fede-89a5… HumanObserva… 2004-04-18  2004 Apr   17:40:38Z               1
    ##  2 001648b3-df39… HumanObserva… 2022-04-04  2022 Apr   21:01:46Z               5
    ##  3 004d9f18-2381… HumanObserva… NA            NA <NA>  <NA>                   NA
    ##  4 004fb1f0-1678… HumanObserva… NA            NA <NA>  <NA>                   NA
    ##  5 005b73cf-9745… HumanObserva… 2010-01-24  2010 Jan   15:24:26Z               4
    ##  6 0076b088-774e… HumanObserva… 1998-08-02  1998 Aug   18:22:19Z               1
    ##  7 008400f9-a1f3… HumanObserva… 2011-05-02  2011 May   16:17:43Z               1
    ##  8 00a2b378-a371… HumanObserva… 2007-10-26  2007 Oct   17:59:43Z               1
    ##  9 00a31509-00cd… HumanObserva… NA            NA <NA>  <NA>                   NA
    ## 10 00af01be-8cb8… HumanObserva… 2008-07-10  2008 Jul   20:24:09Z               8
    ## # ℹ 6,065 more rows
    ## # ℹ 1 more variable: geom <POINT [°]>
…
``` r
hitOrMiss = extract_brickman(mask, obs)
hitOrMiss
```

    ## # A tibble: 3,601 × 3
    ##    .id   name  value
    ##    <chr> <chr> <dbl>
    ##  1 p0001 mask      1
    ##  2 p0002 mask      1
    ##  3 p0003 mask      1
    ##  4 p0004 mask      1
    ##  5 p0005 mask      1
    ##  6 p0006 mask      1
    ##  7 p0007 mask      1
    ##  8 p0008 mask      1
    ##  9 p0009 mask      1
    ## 10 p0010 mask      1
    ## # ℹ 3,591 more rows
…
    ## Simple feature collection with 5832 features and 2 fields
    ## Geometry type: POINT
    ## Dimension:     XY
    ## Bounding box:  xmin: -74.583 ymin: 38.86238 xmax: -65.02004 ymax: 45.07784
    ## Geodetic CRS:  WGS 84
    ## # A tibble: 5,832 × 3
    ##    month class                geometry
    ##  * <fct> <fct>             <POINT [°]>
    ##  1 Jan   presence   (-70.116 42.67433)
    ##  2 Jan   presence  (-69.9081 40.88898)
    ##  3 Jan   presence (-70.09733 41.00665)
    ##  4 Jan   presence (-70.37437 41.32246)
    ##  5 Jan   presence (-69.04631 42.84755)
    ##  6 Jan   presence (-70.19586 42.98453)
    ##  7 Jan   presence (-68.38264 43.20801)
    ##  8 Jan   presence (-70.07285 40.86119)
    ##  9 Jan   presence (-70.25719 42.84668)
    ## 10 Jan   presence (-68.37834 43.30294)
    ## # ℹ 5,822 more rows

``` r
# drop the spatial baggage to speed the tally
count(st_drop_geometry(obsbkg), month, class)
```

    ## # A tibble: 24 × 3
    ##    month class          n
    ##    <fct> <fct>      <int>
    ##  1 Jan   presence     113
    ##  2 Jan   background   323
    ##  3 Feb   presence      84
    ##  4 Feb   background   323
    ##  5 Mar   presence     160
    ##  6 Mar   background   323
    ##  7 Apr   presence     325
    ##  8 Apr   background   323
    ##  9 May   presence     369
    ## 10 May   background   323
    ## # ℹ 14 more rows
…
## A closer look at the model input data

``` r
model_input = read_model_input(scientificname = "Mola mola")
model_input
```

    ## Simple feature collection with 14521 features and 2 fields
    ## Geometry type: POINT
    ## Dimension:     XY
    ## Bounding box:  xmin: -74.72716 ymin: 38.84118 xmax: -65.00391 ymax: 45.1333
    ## Geodetic CRS:  WGS 84
    ## # A tibble: 14,521 × 3
    ##    month class                      geom
    ##    <fct> <fct>               <POINT [°]>
    ##  1 Jan   presence   (-69.62994 43.65584)
    ##  2 Jan   presence   (-72.05151 39.07928)
    ##  3 Jan   presence   (-67.79617 42.75941)
    ##  4 Jan   presence         (-71.31 41.49)
    ##  5 Jan   presence       (-71.989 39.668)
    ##  6 Jan   background (-72.75283 39.37328)
    ##  7 Jan   background (-70.28492 40.93629)
    ##  8 Jan   background (-68.72191 40.36045)
    ##  9 Jan   background (-72.09472 39.94913)
    ## 10 Jan   background (-66.25399 42.17025)
    ## # ℹ 14,511 more rows
``` r
present = read_brickman(add = c("depth"))
```

``` r
variables = extract_brickman(present, model_input, form = "wide")
variables
```

    ## Simple feature collection with 14521 features and 12 fields
    ## Geometry type: POINT
    ## Dimension:     XY
    ## Bounding box:  xmin: -74.72716 ymin: 38.84118 xmax: -65.00391 ymax: 45.1333
    ## Geodetic CRS:  WGS 84
    ## # A tibble: 14,521 × 13
    ##    .id    month class      depth   MLD  Sbtm   SSS   SST  Tbtm        U        V
    ##    <chr>  <fct> <fct>      <dbl> <dbl> <dbl> <dbl> <dbl> <dbl>    <dbl>    <dbl>
    ##  1 p00001 Jan   presence    80.6  31.9  32.7  31.4  3.76  5.68 -6.15e-3  3.85e-5
    ##  2 p00002 Jan   presence  2116.   45.9  35.0  33.3 10.9   3.72  7.56e-3 -6.58e-2
    ##  3 p00003 Jan   presence   192.   34.8  34.7  30.8  3.82  7.55  4.74e-3  1.64e-3
    ##  4 p00004 Jan   presence    13.6  10.7  30.9  30.8  4.57  4.66 -8.93e-4  2.45e-2
    ##  5 p00005 Jan   presence   231.   26.6  35.0  32.0  7.58  8.77 -3.48e-3 -4.36e-3
    ##  6 p00006 Jan   backgrou…   95.5  29.9  34.5  32.0  7.61 11.1   3.05e-3 -5.11e-3
    ##  7 p00007 Jan   backgrou…   38.6  37.0  31.1  31.1  5.14  5.17 -4.07e-3 -4.73e-3
    ##  8 p00008 Jan   backgrou…   91.2  25.1  34.2  31.3  6.17  9.08 -2.34e-3 -8.12e-3
    ##  9 p00009 Jan   backgrou…   87.7  32.2  33.9  31.6  6.83 10.4  -6.35e-3 -1.03e-2
    ## 10 p00010 Jan   backgrou…  155.   23.4  34.4  30.7  4.27  7.49  2.65e-2 -6.97e-4
    ## # ℹ 14,511 more rows
    ## # ℹ 2 more variables: Xbtm <dbl>, geom <POINT [°]>

``` r
variables = variables |>
  mutate(class = model_input$class) |>    # the $ extracts a column 
  select(-.id)                            # the minus means "deselect" or "drop"
variables
```

    ## Simple feature collection with 14521 features and 11 fields
    ## Geometry type: POINT
    ## Dimension:     XY
    ## Bounding box:  xmin: -74.72716 ymin: 38.84118 xmax: -65.00391 ymax: 45.1333
    ## Geodetic CRS:  WGS 84
    ## # A tibble: 14,521 × 12
    ##    month class     depth   MLD  Sbtm   SSS   SST  Tbtm        U        V    Xbtm
    ##    <fct> <fct>     <dbl> <dbl> <dbl> <dbl> <dbl> <dbl>    <dbl>    <dbl>   <dbl>
    ##  1 Jan   presence   80.6  31.9  32.7  31.4  3.76  5.68 -6.15e-3  3.85e-5 0.00219
    ##  2 Jan   presence 2116.   45.9  35.0  33.3 10.9   3.72  7.56e-3 -6.58e-2 0.0282 
    ##  3 Jan   presence  192.   34.8  34.7  30.8  3.82  7.55  4.74e-3  1.64e-3 0.00178
    ##  4 Jan   presence   13.6  10.7  30.9  30.8  4.57  4.66 -8.93e-4  2.45e-2 0.00896
    ##  5 Jan   presence  231.   26.6  35.0  32.0  7.58  8.77 -3.48e-3 -4.36e-3 0.00198
    ##  6 Jan   backgro…   95.5  29.9  34.5  32.0  7.61 11.1   3.05e-3 -5.11e-3 0.00211
    ##  7 Jan   backgro…   38.6  37.0  31.1  31.1  5.14  5.17 -4.07e-3 -4.73e-3 0.00222
    ##  8 Jan   backgro…   91.2  25.1  34.2  31.3  6.17  9.08 -2.34e-3 -8.12e-3 0.00301
    ##  9 Jan   backgro…   87.7  32.2  33.9  31.6  6.83 10.4  -6.35e-3 -1.03e-2 0.00431
    ## 10 Jan   backgro…  155.   23.4  34.4  30.7  4.27  7.49  2.65e-2 -6.97e-4 0.00971
    ## # ℹ 14,511 more rows
    ## # ℹ 1 more variable: geom <POINT [°]>
…
