Background – Colby Forecasting
…
1.3 Randomly sample background points

Now that we have a reasonable set of observation, we now need to choose points around those to represent the background. The sample_background() function requires three input arguments: the set of observations, the raster array and the number of points desired. We can also ask for the original presence observations to be returned. We’ll modify the output by adding a column identifying the month.

obsbkg = sample_background(wicked_thinned_aug_obs, mask, 2*nrow(wicked_thinned_aug_obs),
                           return_pres = TRUE) |>
  mutate(month = "Aug", .before = 1)    # .before tells R where to put this new column
obsbkg

Simple feature collection with 2046 features and 2 fields
Geometry type: POINT
Dimension:     XY
Bounding box:  xmin: -74.72716 ymin: 38.87438 xmax: -65.02004 ymax: 45.54306
Geodetic CRS:  WGS 84
# A tibble: 2,046 × 3
   month class                geometry
 * <chr> <fct>             <POINT [°]>
 1 Aug   presence (-67.84244 43.55836)
 2 Aug   presence       (-70.65 42.95)
 3 Aug   presence (-68.16927 42.38727)
 4 Aug   presence       (-68.27 42.78)
 5 Aug   presence     (-66.538 43.432)
 6 Aug   presence (-66.45789 42.38764)
 7 Aug   presence (-69.54475 42.84995)
 8 Aug   presence (-69.13372 43.60813)
 9 Aug   presence (-72.62202 39.48414)
10 Aug   presence     (-66.933 43.283)
# ℹ 2,036 more rows
…
