Covariates – Colby Forecasting
…
2.4 A closer look at the model input data

Before we do commit to a selection of variables, let’s turn our attention back to our presence-background points, and look at just those chosen values rather than at values drawn form across the entire domain. Let’s open the file that contains the “greedy” model input for August during the PRESENT climate scenario.

model_input = read_model_input(scientificname = "Mola mola", 
                               mon = "Aug")
model_input

Simple feature collection with 2046 features and 2 fields
Geometry type: POINT
Dimension:     XY
Bounding box:  xmin: -74.89169 ymin: 38.8679 xmax: -65.02004 ymax: 45.4608
Geodetic CRS:  WGS 84
# A tibble: 2,046 × 3
   month class                    geom
   <chr> <chr>             <POINT [°]>
 1 Aug   presence (-70.28574 42.13179)
 2 Aug   presence        (-72.72 40.2)
 3 Aug   presence     (-71.312 40.473)
 4 Aug   presence (-68.47897 43.32831)
 5 Aug   presence  (-66.6635 40.91933)
 6 Aug   presence     (-65.067 42.617)
 7 Aug   presence     (-68.733 39.817)
 8 Aug   presence       (-68.54 43.56)
 9 Aug   presence (-66.88484 43.10572)
10 Aug   presence     (-73.742 39.329)
# ℹ 2,036 more rows

Next we’ll extract data values from our August covariates.

variables = extract_brickman(aug, model_input, form = "wide")
variables

# A tibble: 2,046 × 10
   point  depth   MLD  Sbtm   SSS   SST  Tbtm         U          V     Xbtm
   <chr>  <dbl> <dbl> <dbl> <dbl> <dbl> <dbl>     <dbl>      <dbl>    <dbl>
 1 p0001   47.4  4.44  31.9  30.6  19.7  6.03 -0.000329 -0.00207   0.000743
 2 p0002   53.7  4.09  32.1  30.6  22.1  8.47 -0.00191   0.0000298 0.000678
 3 p0003   77.2  4.30  33.4  30.7  21.7  8.95 -0.00324  -0.00149   0.00127 
 4 p0004  175.   5.05  34.4  30.7  18.5  7.49 -0.000634 -0.00101   0.000422
 5 p0005  172.   3.96  34.8  31.1  20.0  8.47 -0.00494  -0.0102    0.00404 
 6 p0006  103.   4.01  33.6  30.7  18.5  6.19 -0.00652  -0.00678   0.00335 
 7 p0007 2294.   5.73  35.0  31.9  22.5  3.56 -0.120    -0.0900    0.0958  
 8 p0008  153.   4.90  34.4  30.7  18.3  7.44 -0.000406 -0.00224   0.000807
 9 p0009  166.   5.42  34.4  30.6  18.8  7.54  0.00281  -0.0132    0.00481 
10 p0010   39.9  4.87  32.0  31.1  23.2 11.3  -0.00302   0.00117   0.00115 
# ℹ 2,036 more rows

We are going to call a plotting function, plot_pres_vs_bg(), that wants some of the data from model_input and some of the data in variables. So, we have to do some data wrangling to combine those; we’ll add class to variables and then drop the point column.

variables = variables |>
  mutate(class = model_input$class) |>    # the $ extracts a column 
  select(-point)                          # the - means "deselect" or "drop"
variables

# A tibble: 2,046 × 10
    depth   MLD  Sbtm   SSS   SST  Tbtm         U          V     Xbtm class   
    <dbl> <dbl> <dbl> <dbl> <dbl> <dbl>     <dbl>      <dbl>    <dbl> <chr>   
 1   47.4  4.44  31.9  30.6  19.7  6.03 -0.000329 -0.00207   0.000743 presence
 2   53.7  4.09  32.1  30.6  22.1  8.47 -0.00191   0.0000298 0.000678 presence
 3   77.2  4.30  33.4  30.7  21.7  8.95 -0.00324  -0.00149   0.00127  presence
 4  175.   5.05  34.4  30.7  18.5  7.49 -0.000634 -0.00101   0.000422 presence
 5  172.   3.96  34.8  31.1  20.0  8.47 -0.00494  -0.0102    0.00404  presence
 6  103.   4.01  33.6  30.7  18.5  6.19 -0.00652  -0.00678   0.00335  presence
 7 2294.   5.73  35.0  31.9  22.5  3.56 -0.120    -0.0900    0.0958   presence
 8  153.   4.90  34.4  30.7  18.3  7.44 -0.000406 -0.00224   0.000807 presence
 9  166.   5.42  34.4  30.6  18.8  7.54  0.00281  -0.0132    0.00481  presence
10   39.9  4.87  32.0  31.1  23.2 11.3  -0.00302   0.00117   0.00115  presence
# ℹ 2,036 more rows
…
